"Mozilla/1.22 (compatible; MSIE 10.0; Windows 3.1)"
"Mozilla/5.0 (X11; Linux x86_64; rv:2.2a1pre) Gecko/20110324 Firefox/4.2a1pre"
"Mozilla/5.0 (X11; Linux x86_64; rv:2.2a1pre) Gecko/20100101 Firefox/4.2a1pre"
"Mozilla/5.0 (X11; Linux x86_64; rv:2.0b9pre) Gecko/20110111 Firefox/4.0b9pre"
"Mozilla/5.0 (Macintosh; Intel Mac OS X 10.6; rv:2.0b8) Gecko/20100101 Firefox/4.0b8"
"Mozilla/5.0 (X11; Linux x86_64; rv:2.0b4) Gecko/20100818 Firefox/4.0b4"
"Mozilla/5.0 (X11; Linux i686; rv:2.0b3pre) Gecko/20100731 Firefox/4.0b3pre"
"Mozilla/5.0 (X11; Linux i686; rv:2.0b12pre) Gecko/20110204 Firefox/4.0b12pre"
"Mozilla/5.0 (X11; Linux i686; rv:2.0b12pre) Gecko/20100101 Firefox/4.0b12pre"
"Mozilla/5.0 (Macintosh; Intel Mac OS X 10.6; rv:2.0b11pre) Gecko/20110126 Firefox/4.0b11pre"
"Mozilla/5.0 (X11; Linux i686; rv:2.0b10) Gecko/20100101 Firefox/4.0b10"
"Mozilla/5.0 (X11; U; Linux x86_64; pl-PL; rv:2.0) Gecko/20110307 Firefox/4.0"
"Mozilla/5.0 (X11; U; Linux i686; en-GB; rv:2.0) Gecko/20110404 Fedora/16-dev Firefox/4.0"
"Mozilla/5.0 (X11; Arch Linux i686; rv:2.0) Gecko/20110321 Firefox/4.0"
"Mozilla/5.0 (X11; U; Linux i686; pl-PL; rv:1.9.0.2) Gecko/20121223 Ubuntu/9.25 (jaunty) Firefox/3.8"
"Mozilla/5.0 (X11; U; Linux i686; pl-PL; rv:1.9.0.2) Gecko/2008092313 Ubuntu/9.25 (jaunty) Firefox/3.8"
"Mozilla/5.0 (X11; U; Linux i686; it-IT; rv:1.9.0.2) Gecko/2008092313 Ubuntu/9.25 (jaunty) Firefox/3.8"
"Mozilla/5.0 (X11; U; Linux i686; ru; rv:1.9.3a5pre) Gecko/20100526 Firefox/3.7a5pre"
"Mozilla/5.0 (Macintosh; U; Intel Mac OS X 10.6; en-US; rv:1.9.2) Gecko/20091218 Firefox 3.6b5"
"Mozilla/5.0 (X11; U; Linux x86_64; en-US; rv:1.9.2a1pre) Gecko/20090428 Firefox/3.6a1pre"
"Mozilla/5.0 (X11; U; Linux x86_64; en-US; rv:1.9.2a1pre) Gecko/20090405 Firefox/3.6a1pre"
"Mozilla/5.0 (X11; U; Linux i686; ru-RU; rv:1.9.2a1pre) Gecko/20090405 Ubuntu/9.04 (jaunty) Firefox/3.6a1pre"
"Mozilla/5.0 (X11; U; Linux x86_64; en-US; rv:1.9.2.9) Gecko/20100915 Gentoo Firefox/3.6.9"
"Mozilla/5.0 (X11; U; FreeBSD i386; en-US; rv:1.9.2.9) Gecko/20100913 Firefox/3.6.9"
"Mozilla/5.0 (X11; U; OpenBSD i386; en-US; rv:1.9.2.8) Gecko/20101230 Firefox/3.6.8"
"Mozilla/5.0 (X11; U; Linux x86_64; en-US; rv:1.9.2.8) Gecko/20100804 Gentoo Firefox/3.6.8"
"Mozilla/5.0 (X11; U; Linux x86_64; en-US; rv:1.9.2.8) Gecko/20100723 SUSE/3.6.8-0.1.1 Firefox/3.6.8"
"Mozilla/5.0 (X11; U; Linux i686; zh-CN; rv:1.9.2.8) Gecko/20100722 Ubuntu/10.04 (lucid) Firefox/3.6.8"
"Mozilla/5.0 (X11; U; Linux i686; ru; rv:1.9.2.8) Gecko/20100723 Ubuntu/10.04 (lucid) Firefox/3.6.8"
"Mozilla/5.0 (X11; U; Linux i686; fi-FI; rv:1.9.2.8) Gecko/20100723 Ubuntu/10.04 (lucid) Firefox/3.6.8"
"Mozilla/5.0 (X11; U; Linux i686; en-US; rv:1.9.2.8) Gecko/20100727 Firefox/3.6.8"
"Mozilla/5.0 (X11; U; Linux i686; de-DE; rv:1.9.2.8) Gecko/20100725 Gentoo Firefox/3.6.8"
"Mozilla/5.0 (X11; U; FreeBSD i386; de-CH; rv:1.9.2.8) Gecko/20100729 Firefox/3.6.8"
"Mozilla/5.0 (X11; U; Linux x86_64; en-US; rv:1.9.2.7) Gecko/20100809 Fedora/3.6.7-1.fc14 Firefox/3.6.7"
"Mozilla/5.0 (X11; U; Linux x86_64; en-US; rv:1.9.2.7) Gecko/20100723 Fedora/3.6.7-1.fc13 Firefox/3.6.7"
"Mozilla/5.0 (X11; U; Linux i686; en-US; rv:1.9.2.7) Gecko/20100726 CentOS/3.6-3.el5.centos Firefox/3.6.7"
"Mozilla/5.0 (X11; U; Linux x86_64; en-US; rv:1.9.2.6) Gecko/20100628 Ubuntu/10.04 (lucid) Firefox/3.6.6 GTB7.1"
"Mozilla/5.0 (X11; U; Linux x86_64; en-US; rv:1.9.2.6) Gecko/20100628 Ubuntu/10.04 (lucid) Firefox/3.6.6 GTB7.0"
"Mozilla/5.0 (X11; U; Linux x86_64; en-US; rv:1.9.2.6) Gecko/20100628 Ubuntu/10.04 (lucid) Firefox/3.6.6 (.NET CLR 3.5.30729)"
"Mozilla/5.0 (X11; U; Linux x86_64; en-US; rv:1.9.2.6) Gecko/20100628 Ubuntu/10.04 (lucid) Firefox/3.6.6"
"Mozilla/5.0 (X11; U; Linux x86_64; en-US; rv:1.9.2.4) Gecko/20100614 Ubuntu/10.04 (lucid) Firefox/3.6.4"
"Mozilla/5.0 (X11; U; Linux i686; en-US; rv:1.9.2.4) Gecko/20100625 Gentoo Firefox/3.6.4"
"Mozilla/5.0 (X11; U; Linux x86_64; fr; rv:1.9.2.3) Gecko/20100403 Fedora/3.6.3-4.fc13 Firefox/3.6.3"
"Mozilla/5.0 (X11; U; Linux x86_64; en-US; rv:1.9.2.3) Gecko/20100403 Firefox/3.6.3"
"Mozilla/5.0 (X11; U; Linux x86_64; de; rv:1.9.2.3) Gecko/20100401 SUSE/3.6.3-1.1 Firefox/3.6.3"
"Mozilla/5.0 (X11; U; Linux i686; ko-KR; rv:1.9.2.3) Gecko/20100423 Ubuntu/10.04 (lucid) Firefox/3.6.3"
"Mozilla/5.0 (X11; U; Linux i686; en-US; rv:1.9.2.3) Gecko/20100404 Ubuntu/10.04 (lucid) Firefox/3.6.3"
"Mozilla/5.0 (X11; U; Linux i686; en-US; rv:1.9.2.3) Gecko/20100401 Firefox/3.6.3 GTB7.1"
"Mozilla/5.0 (X11; U; Linux i686; en-US; rv:1.9.2.2) Gecko/20100316 Firefox/3.6.3"
"Mozilla/5.0 (X11; U; Linux i686; de; rv:1.9.2.3) Gecko/20100423 Ubuntu/10.04 (lucid) Firefox/3.6.3"
"Mozilla/5.0 (X11; U; Linux AMD64; en-US; rv:1.9.2.3) Gecko/20100403 Ubuntu/10.10 (maverick) Firefox/3.6.3"
"Mozilla/5.0 (X11; U; Linux i686; fr; rv:1.9.2.2) Gecko/20100316 Firefox/3.6.2"
"Mozilla/5.0 (Macintosh; U; Intel Mac OS X 10.7; en-US; rv:1.9.2.2) Gecko/20100316 Firefox/3.6.2"
"Mozilla/5.0 (X11; U; Linux i686; en-US; rv:1.9.2.10pre) Gecko/20100902 Ubuntu/9.10 (karmic) Firefox/3.6.1pre"
"Mozilla/5.0 (X11; U; Linux x86_64; ja-JP; rv:1.9.2.16) Gecko/20110323 Ubuntu/10.10 (maverick) Firefox/3.6.16"
"Mozilla/5.0 (X11; U; Linux i686; en-US; rv:1.9.2.16) Gecko/20110323 Ubuntu/9.10 (karmic) Firefox/3.6.16 FirePHP/0.5"
"Mozilla/5.0 (X11; U; Linux i686; en-GB; rv:1.9.2.16) Gecko/20110319 Firefox/3.6.16"
"Mozilla/5.0 (X11; U; Linux i686; en-US; rv:1.9.2.16pre) Gecko/20110304 Ubuntu/10.10 (maverick) Firefox/3.6.15pre"
"Mozilla/5.0 (X11; U; Linux i686; en-US; rv:1.9.2.15) Gecko/20110303 Ubuntu/10.04 (lucid) Firefox/3.6.15 FirePHP/0.5"
"Mozilla/5.0 (X11; U; Linux i686; de; rv:1.9.2.15) Gecko/20110330 CentOS/3.6-1.el5.centos Firefox/3.6.15"
"Mozilla/5.0 (X11; U; Linux i686; en-US; rv:1.9.2.14pre) Gecko/20110105 Firefox/3.6.14pre"
"Mozilla/5.0 (X11; U; Linux armv7l; en-US; rv:1.9.2.14) Gecko/20110224 Firefox/3.6.14 MB860/Version.0.43.3.MB860.AmericaMovil.en.MX"
"Mozilla/5.0 (X11; U; Linux x86_64; pl-PL; rv:1.9.2.13) Gecko/20101206 Ubuntu/10.04 (lucid) Firefox/3.6.13"
"Mozilla/5.0 (X11; U; Linux x86_64; nb-NO; rv:1.9.2.13) Gecko/20101206 Ubuntu/10.04 (lucid) Firefox/3.6.13"
"Mozilla/5.0 (X11; U; Linux x86_64; it; rv:1.9.2.13) Gecko/20101206 Ubuntu/10.04 (lucid) Firefox/3.6.13 (.NET CLR 3.5.30729)"
"Mozilla/5.0 (X11; U; Linux x86_64; fr; rv:1.9.2.13) Gecko/20110103 Fedora/3.6.13-1.fc14 Firefox/3.6.13"
"Mozilla/5.0 (X11; U; Linux x86_64; fr; rv:1.9.2.13) Gecko/20101203 Firefox/3.6.13"
"Mozilla/5.0 (X11; U; Linux x86_64; en-US; rv:1.9.2.13) Gecko/20101223 Gentoo Firefox/3.6.13"
"Mozilla/5.0 (X11; U; Linux x86_64; en-US; rv:1.9.2.13) Gecko/20101219 Gentoo Firefox/3.6.13"
"Mozilla/5.0 (X11; U; Linux x86_64; en-US; rv:1.9.2.13) Gecko/20101206 Red Hat/3.6-3.el4 Firefox/3.6.13"
"Mozilla/5.0 (X11; U; Linux x86_64; en-US; rv:1.9.2.13) Gecko/20101206 Firefox/3.6.13"
"Mozilla/5.0 (X11; U; Linux x86_64; en-NZ; rv:1.9.2.13) Gecko/20101206 Ubuntu/10.10 (maverick) Firefox/3.6.13"
"Mozilla/5.0 (X11; U; Linux x86_64; en-GB; rv:1.9.2.13) Gecko/20101206 Ubuntu/9.10 (karmic) Firefox/3.6.13"
"Mozilla/5.0 (X11; U; Linux x86_64; en-GB; rv:1.9.2.13) Gecko/20101206 Red Hat/3.6-2.el5 Firefox/3.6.13"
"Mozilla/5.0 (X11; U; Linux x86_64; da-DK; rv:1.9.2.13) Gecko/20101206 Ubuntu/10.10 (maverick) Firefox/3.6.13"
"Mozilla/5.0 (X11; U; Linux MIPS32 1074Kf CPS QuadCore; en-US; rv:1.9.2.13) Gecko/20110103 Fedora/3.6.13-1.fc14 Firefox/3.6.13"
"Mozilla/5.0 (X11; U; Linux i686; ru; rv:1.9.2.13) Gecko/20101206 Ubuntu/10.10 (maverick) Firefox/3.6.13"
"Mozilla/5.0 (X11; U; Linux i686; pt-BR; rv:1.9.2.13) Gecko/20101209 Fedora/3.6.13-1.fc13 Firefox/3.6.13"
"Mozilla/5.0 (X11; U; Linux i686; es-ES; rv:1.9.2.13) Gecko/20101206 Ubuntu/9.10 (karmic) Firefox/3.6.13"
"Mozilla/5.0 (X11; U; Linux i686; de; rv:1.9.2.13) Gecko/20101209 CentOS/3.6-2.el5.centos Firefox/3.6.13"
"Mozilla/5.0 (X11; U; Linux i686; de; rv:1.9.2.13) Gecko/20101206 Ubuntu/10.10 (maverick) Firefox/3.6.13"
"Mozilla/5.0 (X11; U; NetBSD i386; en-US; rv:1.9.2.12) Gecko/20101030 Firefox/3.6.12"
"Mozilla/5.0 (X11; U; Linux x86_64; es-MX; rv:1.9.2.12) Gecko/20101027 Ubuntu/10.04 (lucid) Firefox/3.6.12"
"Mozilla/5.0 (X11; U; Linux x86_64; es-ES; rv:1.9.2.12) Gecko/20101027 Fedora/3.6.12-1.fc13 Firefox/3.6.12"
"Mozilla/5.0 (X11; U; Linux x86_64; es-ES; rv:1.9.2.12) Gecko/20101026 SUSE/3.6.12-0.7.1 Firefox/3.6.12"
"Mozilla/5.0 (X11; U; Linux x86_64; en-US; rv:1.9.2.12) Gecko/20101102 Gentoo Firefox/3.6.12"
"Mozilla/5.0 (X11; U; Linux x86_64; en-US; rv:1.9.2.12) Gecko/20101102 Firefox/3.6.12"
"Mozilla/5.0 (X11; U; Linux ppc; fr; rv:1.9.2.12) Gecko/20101027 Ubuntu/10.10 (maverick) Firefox/3.6.12"
"Mozilla/5.0 (X11; U; Linux i686; ko-KR; rv:1.9.2.12) Gecko/20101027 Ubuntu/10.10 (maverick) Firefox/3.6.12"
"Mozilla/5.0 (X11; U; Linux i686; en-GB; rv:1.9.2.12) Gecko/20101027 Ubuntu/10.10 (maverick) Firefox/3.6.12 GTB7.1"
"Mozilla/5.0 (X11; U; Linux i686; de; rv:1.9.2.12) Gecko/20101027 Fedora/3.6.12-1.fc13 Firefox/3.6.12"
"Mozilla/5.0 (X11; FreeBSD x86_64; rv:2.0) Gecko/20100101 Firefox/3.6.12"
"Mozilla/5.0 (Macintosh; U; Intel Mac OS X 10.6; de; rv:1.9.2.12) Gecko/20101026 Firefox/3.6.12 GTB5"
"Mozilla/5.0 (X11; U; Linux x86_64; ru; rv:1.9.2.11) Gecko/20101028 CentOS/3.6-2.el5.centos Firefox/3.6.11"
"Mozilla/5.0 (X11; U; Linux armv7l; en-GB; rv:1.9.2.3pre) Gecko/20100723 Firefox/3.6.11"
"Mozilla/5.0 (X11; U; Linux x86_64; zh-CN; rv:1.9.2.10) Gecko/20100922 Ubuntu/10.10 (maverick) Firefox/3.6.10"
"Mozilla/5.0 (X11; U; Linux x86_64; pt-BR; rv:1.9.2.10) Gecko/20100922 Ubuntu/10.10 (maverick) Firefox/3.6.10"
"Mozilla/5.0 (X11; U; Linux x86_64; pl-PL; rv:1.9.2.10) Gecko/20100922 Ubuntu/10.10 (maverick) Firefox/3.6.10"
"Mozilla/5.0 (X11; U; Linux x86_64; en-US; rv:1.9.2.10) Gecko/20100922 Ubuntu/10.10 (maverick) Firefox/3.6.10 GTB7.1"
"Mozilla/5.0 (X11; U; Linux x86_64; el-GR; rv:1.9.2.10) Gecko/20100922 Ubuntu/10.10 (maverick) Firefox/3.6.10"
"Mozilla/5.0 (X11; U; Linux x86_64; de; rv:1.9.2.10) Gecko/20100922 Ubuntu/10.10 (maverick) Firefox/3.6.10 GTB7.1"
"Mozilla/5.0 (X11; U; Linux x86_64; cs-CZ; rv:1.9.2.10) Gecko/20100915 Ubuntu/10.04 (lucid) Firefox/3.6.10"
"Mozilla/5.0 (X11; U; Linux i686; pl-PL; rv:1.9.2.10) Gecko/20100915 Ubuntu/10.04 (lucid) Firefox/3.6.10"
"Mozilla/5.0 (X11; U; Linux i686; fr-FR; rv:1.9.2.10) Gecko/20100914 Firefox/3.6.10"
"Mozilla/5.0 (X11; U; Linux i686; es-AR; rv:1.9.2.10) Gecko/20100922 Ubuntu/10.10 (maverick) Firefox/3.6.10"
"Mozilla/5.0 (X11; U; Linux i686; en-US; rv:1.9.2.10) Gecko/20100915 Ubuntu/9.04 (jaunty) Firefox/3.6.10"
"Mozilla/5.0 (X11; U; Linux i686; en-GB; rv:1.9.2.11) Gecko/20101013 Ubuntu/10.10 (maverick) Firefox/3.6.10"
"Mozilla/5.0 (X11; U; Linux i686; en-CA; rv:1.9.2.10) Gecko/20100922 Ubuntu/10.10 (maverick) Firefox/3.6.10"
"Mozilla/5.0 (X11; U; Linux i686; de; rv:1.9.2.10) Gecko/20100922 Ubuntu/10.10 (maverick) Firefox/3.6.10"
"Mozilla/5.0 (X11; U; Linux i686; de; rv:1.9.2.10) Gecko/20100915 Ubuntu/9.10 (karmic) Firefox/3.6.10"
"Mozilla/5.0 (X11; U; Linux i686; de; rv:1.9.2.10) Gecko/20100915 Ubuntu/10.04 (lucid) Firefox/3.6.10"
"Mozilla/5.0 (X11; U; Linux i686; de; rv:1.9.2.10) Gecko/20100914 SUSE/3.6.10-0.3.1 Firefox/3.6.10"
"Mozilla/5.0 (X11; U; Linux i686; en-US; rv:1.9.2.1) Gecko/20100122 firefox/3.6.1"
"Mozilla/5.0 (X11; U; Linux x86_64; en-US; rv:1.9.2) Gecko/20100222 Ubuntu/10.04 (lucid) Firefox/3.6"
"Mozilla/5.0 (X11; U; Linux x86_64; en-US; rv:1.9.2) Gecko/20100130 Gentoo Firefox/3.6"
"Mozilla/5.0 (X11; U; Linux x86_64; de; rv:1.9.2) Gecko/20100308 Ubuntu/10.04 (lucid) Firefox/3.6"
"Mozilla/5.0 (X11; U; Linux i686; en-US; rv:1.9.2.2pre) Gecko/20100312 Ubuntu/9.04 (jaunty) Firefox/3.6"
"Mozilla/5.0 (X11; U; Linux i686; en-US; rv:1.9.2) Gecko/20100128 Gentoo Firefox/3.6"
"Mozilla/5.0 (X11; U; Linux i686; en-US; rv:1.9.2) Gecko/20100115 Ubuntu/10.04 (lucid) Firefox/3.6"
"Mozilla/5.0 (X11; U; Linux i686; en-US; rv:1.9.2) Gecko/20100115 Firefox/3.6 FirePHP/0.4"
"Mozilla/5.0 (X11; Linux i686; rv:2.0) Gecko/20100101 Firefox/3.6"
"Mozilla/5.0 (X11; FreeBSD i686) Firefox/3.6"
"Mozilla/5.0 (X11; U; Linux i686; nl-NL; rv:1.9.1b4) Gecko/20090423 Firefox/3.5b4"
"Mozilla/5.0 (Macintosh; U; Intel Mac OS X 10.5; fr; rv:1.9.1b4) Gecko/20090423 Firefox/3.5b4"
"Mozilla/5.0 (Macintosh; U; Intel Mac OS X 10.5; en-US; rv:1.9.1b4) Gecko/20090423 Firefox/3.5b4 GTB5"
"Mozilla/5.0 (X11; U; Linux x86_64; it; rv:1.9.1.9) Gecko/20100402 Ubuntu/9.10 (karmic) Firefox/3.5.9 (.NET CLR 3.5.30729)"
"Mozilla/5.0 (X11; U; Linux x86_64; it; rv:1.9.1.9) Gecko/20100330 Fedora/3.5.9-2.fc12 Firefox/3.5.9"
"Mozilla/5.0 (X11; U; Linux x86_64; fr; rv:1.9.1.9) Gecko/20100317 SUSE/3.5.9-0.1.1 Firefox/3.5.9 GTB7.0"
"Mozilla/5.0 (X11; U; Linux x86_64; es-CL; rv:1.9.1.9) Gecko/20100402 Ubuntu/9.10 (karmic) Firefox/3.5.9"
"Mozilla/5.0 (X11; U; Linux x86_64; cs-CZ; rv:1.9.1.9) Gecko/20100317 SUSE/3.5.9-0.1.1 Firefox/3.5.9"
"Mozilla/5.0 (X11; U; Linux i686; nl; rv:1.9.1.9) Gecko/20100401 Ubuntu/9.10 (karmic) Firefox/3.5.9"
"Mozilla/5.0 (X11; U; Linux i686; hu-HU; rv:1.9.1.9) Gecko/20100330 Fedora/3.5.9-1.fc12 Firefox/3.5.9"
"Mozilla/5.0 (X11; U; Linux i686; es-ES; rv:1.9.1.9) Gecko/20100317 SUSE/3.5.9-0.1 Firefox/3.5.9"
"Mozilla/5.0 (X11; U; Linux i686; en-US; rv:1.9.1.9) Gecko/20100401 Ubuntu/9.10 (karmic) Firefox/3.5.9 GTB7.1"
"Mozilla/5.0 (X11; U; Linux i686; en-US; rv:1.9.1.9) Gecko/20100315 Ubuntu/9.10 (karmic) Firefox/3.5.9"
"Mozilla/5.0 (X11; U; Linux i686; en-US; rv:1.9.1.4) Gecko/20091028 Ubuntu/9.10 (karmic) Firefox/3.5.9"
"Mozilla/5.0 (X11; U; Linux x86_64; ru; rv:1.9.1.8) Gecko/20100216 Fedora/3.5.8-1.fc12 Firefox/3.5.8"
"Mozilla/5.0 (X11; U; Linux x86_64; es-ES; rv:1.9.1.8) Gecko/20100216 Fedora/3.5.8-1.fc11 Firefox/3.5.8"
"Mozilla/5.0 (X11; U; Linux x86_64; en-US; rv:1.9.1.8) Gecko/20100318 Gentoo Firefox/3.5.8"
"Mozilla/5.0 (X11; U; Linux i686; zh-CN; rv:1.9.1.8) Gecko/20100216 Fedora/3.5.8-1.fc12 Firefox/3.5.8"
"Mozilla/5.0 (X11; U; Linux i686; ja-JP; rv:1.9.1.8) Gecko/20100216 Fedora/3.5.8-1.fc12 Firefox/3.5.8"
"Mozilla/5.0 (X11; U; Linux i686; es-AR; rv:1.9.1.8) Gecko/20100214 Ubuntu/9.10 (karmic) Firefox/3.5.8"
"Mozilla/5.0 (X11; U; Linux i686; de; rv:1.9.1.8) Gecko/20100214 Ubuntu/9.10 (karmic) Firefox/3.5.8"
"Mozilla/5.0 (X11; U; Linux i686; de; rv:1.9.1.8) Gecko/20100202 Firefox/3.5.8"
"Mozilla/5.0 (X11; U; FreeBSD i386; ja-JP; rv:1.9.1.8) Gecko/20100305 Firefox/3.5.8"
"Mozilla/5.0 (X11; U; Linux x86_64; en-US; rv:1.9.2) Gecko/20100305 Gentoo Firefox/3.5.7"
"Mozilla/5.0 (X11; U; Linux x86_64; cs-CZ; rv:1.9.1.7) Gecko/20100106 Ubuntu/9.10 (karmic) Firefox/3.5.7"
"Mozilla/5.0 (X11; U; Linux i686; es-ES; rv:1.9.1.7) Gecko/20091222 SUSE/3.5.7-1.1.1 Firefox/3.5.7"
"Mozilla/5.0 (X11; U; Linux x86_64; fr; rv:1.9.1.6) Gecko/20091215 Ubuntu/9.10 (karmic) Firefox/3.5.6"
"Mozilla/5.0 (X11; U; Linux x86_64; en-US; rv:1.9.1.6) Gecko/20100117 Gentoo Firefox/3.5.6"
"Mozilla/5.0 (X11; U; Linux i686; zh-CN; rv:1.9.1.6) Gecko/20091216 Fedora/3.5.6-1.fc11 Firefox/3.5.6 GTB6"
"Mozilla/5.0 (X11; U; Linux i686; es-ES; rv:1.9.1.6) Gecko/20091201 SUSE/3.5.6-1.1.1 Firefox/3.5.6 GTB6"
"Mozilla/5.0 (X11; U; Linux i686; en-US; rv:1.9.1.6) Gecko/20100118 Gentoo Firefox/3.5.6"
"Mozilla/5.0 (X11; U; Linux i686; en-GB; rv:1.9.1.6) Gecko/20091215 Ubuntu/9.10 (karmic) Firefox/3.5.6 GTB6"
"Mozilla/5.0 (X11; U; Linux i686; de; rv:1.9.1.6) Gecko/20091215 Ubuntu/9.10 (karmic) Firefox/3.5.6 GTB7.0"
"Mozilla/5.0 (X11; U; Linux i686; de; rv:1.9.1.6) Gecko/20091215 Ubuntu/9.10 (karmic) Firefox/3.5.6"
"Mozilla/5.0 (X11; U; Linux i686; de; rv:1.9.1.6) Gecko/20091201 SUSE/3.5.6-1.1.1 Firefox/3.5.6"
"Mozilla/5.0 (X11; U; Linux i686; cs-CZ; rv:1.9.1.6) Gecko/20100107 Fedora/3.5.6-1.fc12 Firefox/3.5.6"
"Mozilla/5.0 (X11; U; Linux i686; ca; rv:1.9.1.6) Gecko/20091215 Ubuntu/9.10 (karmic) Firefox/3.5.6"
"Mozilla/5.0 (X11; U; Linux x86_64; fr; rv:1.9.1.5) Gecko/20091109 Ubuntu/9.10 (karmic) Firefox/3.5.5"
"Mozilla/5.0 (X11; U; Linux x86_64; en-US; rv:1.9.1.8pre) Gecko/20091227 Ubuntu/9.10 (karmic) Firefox/3.5.5"
"Mozilla/5.0 (X11; U; Linux x86_64; en-US; rv:1.9.1.5) Gecko/20091114 Gentoo Firefox/3.5.5"
"Mozilla/5.0 (X11; U; Linux i686 (x86_64); en-US; rv:1.9.1.5) Gecko/20091102 Firefox/3.5.5"
"Mozilla/5.0 (Macintosh; U; Intel Mac OS X 10.5; pl; rv:1.9.1.5) Gecko/20091102 Firefox/3.5.5 FBSMTWB"
"Mozilla/5.0 (X11; U; Linux x86_64; ja; rv:1.9.1.4) Gecko/20091016 SUSE/3.5.4-1.1.2 Firefox/3.5.4"
"Mozilla/5.0 (X11; U; Linux x86_64; fr; rv:1.9.1.5) Gecko/20091109 Ubuntu/9.10 (karmic) Firefox/3.5.3pre"
"Mozilla/5.0 (X11; U; Linux x86_64; en-US; rv:1.9.1.3) Gecko/20090914 Slackware/13.0_stable Firefox/3.5.3"
"Mozilla/5.0 (X11; U; Linux x86_64; en-US; rv:1.9.1.3) Gecko/20090913 Firefox/3.5.3"
"Mozilla/5.0 (X11; U; Linux i686; ru; rv:1.9.1.3) Gecko/20091020 Ubuntu/9.10 (karmic) Firefox/3.5.3"
"Mozilla/5.0 (X11; U; Linux i686; fr; rv:1.9.1.3) Gecko/20090913 Firefox/3.5.3"
"Mozilla/5.0 (X11; U; Linux i686; en-US; rv:1.9.1.3) Gecko/20090919 Firefox/3.5.3"
"Mozilla/5.0 (X11; U; Linux i686; en-US; rv:1.9.1.3) Gecko/20090912 Gentoo Firefox/3.5.3 FirePHP/0.3"
"Mozilla/5.0 (X11; U; Linux i686; en-GB; rv:1.9.1.3) Gecko/20090824 Firefox/3.5.3 GTB5"
"Mozilla/5.0 (X11; U; FreeBSD i386; ru-RU; rv:1.9.1.3) Gecko/20090913 Firefox/3.5.3"
"Mozilla/5.0 (X11; U; Linux x86_64; pl; rv:1.9.1.2) Gecko/20090911 Slackware Firefox/3.5.2"
"Mozilla/5.0 (X11; U; Linux x86_64; en-US; rv:1.9.1.2) Gecko/20090803 Slackware Firefox/3.5.2"
"Mozilla/5.0 (X11; U; Linux x86_64; en-US; rv:1.9.1.2) Gecko/20090803 Firefox/3.5.2 Slackware"
"Mozilla/5.0 (X11; U; Linux i686; ru-RU; rv:1.9.1.2) Gecko/20090804 Firefox/3.5.2"
"Mozilla/5.0 (X11; U; Linux i686; en-US; rv:1.9.1.2) Gecko/20090729 Slackware/13.0 Firefox/3.5.2"
"Mozilla/5.0 (X11; U; Linux i686; en-US; rv:1.9.1.2) Gecko/20090729 Firefox/3.5.2"
"Mozilla/5.0 (X11; U; Linux i686 (x86_64); fr; rv:1.9.1.2) Gecko/20090729 Firefox/3.5.2"
"Mozilla/5.0 (X11; U; Linux x86_64; it; rv:1.9.1.15) Gecko/20101027 Fedora/3.5.15-1.fc12 Firefox/3.5.15"
"Mozilla/5.0 (X11; U; Linux i686; en-GB; rv:1.9.1.15) Gecko/20101027 Fedora/3.5.15-1.fc12 Firefox/3.5.15"
"Mozilla/5.0 (X11; U; Linux; en-US; rv:1.9.1.11) Gecko/20100720 Firefox/3.5.11"
"Mozilla/5.0 (X11; U; Linux x86_64; de; rv:1.9.1.10) Gecko/20100506 SUSE/3.5.10-0.1.1 Firefox/3.5.10"
"Mozilla/5.0 (X11; U; Linux x86_64; rv:1.9.1.1) Gecko/20090716 Linux Firefox/3.5.1"
"Mozilla/5.0 (X11; U; Linux x86_64; en-US; rv:1.9.2.3) Gecko/20100524 Firefox/3.5.1"
"Mozilla/5.0 (X11; U; Linux x86_64; en-US; rv:1.9.1.1) Gecko/20090716 Linux Mint/7 (Gloria) Firefox/3.5.1"
"Mozilla/5.0 (X11; U; Linux x86_64; en-US; rv:1.9.1.1) Gecko/20090716 Firefox/3.5.1"
"Mozilla/5.0 (X11; U; Linux x86_64; en-US; rv:1.9.1.1) Gecko/20090714 SUSE/3.5.1-1.1 Firefox/3.5.1"
"Mozilla/5.0 (X11; U; Linux x86; rv:1.9.1.1) Gecko/20090716 Linux Firefox/3.5.1"
"Mozilla/5.0 (X11; U; Linux i686; nl; rv:1.9.1.1) Gecko/20090715 Firefox/3.5.1"
"Mozilla/5.0 (X11; U; Linux i686; en-US; rv:1.9.1.2pre) Gecko/20090729 Ubuntu/9.04 (jaunty) Firefox/3.5.1"
"Mozilla/5.0 (X11; U; Linux i686; en-US; rv:1.9.1.1) Gecko/20090715 Firefox/3.5.1 GTB5"
"Mozilla/5.0 (X11; U; Linux i686; de; rv:1.9.1.1) Gecko/20090722 Gentoo Firefox/3.5.1"
"Mozilla/5.0 (X11; U; Linux i686; de; rv:1.9.1.1) Gecko/20090714 SUSE/3.5.1-1.1 Firefox/3.5.1"
"Mozilla/5.0 (X11; U; DragonFly i386; de; rv:1.9.1) Gecko/20090720 Firefox/3.5.1"
"Mozilla/5.0 (X11;U; Linux i686; en-GB; rv:1.9.1) Gecko/20090624 Ubuntu/9.04 (jaunty) Firefox/3.5"
"Mozilla/5.0 (X11; U; Linux x86_64; en-US; rv:1.9.1) Gecko/20090630 Firefox/3.5 GTB6"
"Mozilla/5.0 (X11; U; Linux i686; ja; rv:1.9.1) Gecko/20090624 Firefox/3.5 (.NET CLR 3.5.30729)"
"Mozilla/5.0 (X11; U; Linux i686; it-IT; rv:1.9.0.2) Gecko/2008092313 Ubuntu/9.04 (jaunty) Firefox/3.5"
"Mozilla/5.0 (X11; U; Linux i686; fr; rv:1.9.1) Gecko/20090624 Firefox/3.5"
"Mozilla/5.0 (X11; U; Linux i686; fr-FR; rv:1.9.1) Gecko/20090624 Ubuntu/9.04 (jaunty) Firefox/3.5"
"Mozilla/5.0 (X11; U; Linux i686; en-US; rv:1.9.1) Gecko/20090701 Ubuntu/9.04 (jaunty) Firefox/3.5"
"Mozilla/5.0 (X11; U; Linux i686; en-us; rv:1.9.0.2) Gecko/2008092313 Ubuntu/9.04 (jaunty) Firefox/3.5"
"Mozilla/5.0 (X11; U; Linux i686; de; rv:1.9.1) Gecko/20090624 Ubuntu/8.04 (hardy) Firefox/3.5"
"Mozilla/5.0 (X11; U; Linux i686; de; rv:1.9.1) Gecko/20090624 Firefox/3.5"
"Mozilla/5.0 (X11; U; Linux i686 (x86_64); de; rv:1.9.1) Gecko/20090624 Firefox/3.5"
"Mozilla/5.0 (X11; U; FreeBSD i386; en-US; rv:1.9.1) Gecko/20090703 Firefox/3.5"
"Mozilla/5.0 (X11; U; FreeBSD i386; en-US; rv:1.9.0.10) Gecko/20090624 Firefox/3.5"
"Mozilla/5.0 (X11; Linux x86_64) AppleWebKit/534.24 (KHTML, like Gecko) Ubuntu/10.10 Chromium/12.0.703.0 Chrome/12.0.703.0 Safari/534.24"
"Mozilla/5.0 (X11; Linux i686) AppleWebKit/534.24 (KHTML, like Gecko) Ubuntu/10.10 Chromium/12.0.702.0 Chrome/12.0.702.0 Safari/534.24"
"Mozilla/5.0 (Macintosh; Intel Mac OS X 10_6_6) AppleWebKit/534.24 (KHTML, like Gecko) Chrome/11.0.698.0 Safari/534.24"
"Mozilla/5.0 (X11; Linux x86_64) AppleWebKit/534.24 (KHTML, like Gecko) Chrome/11.0.696.34 Safari/534.24"
"Mozilla/5.0 (X11; Linux x86_64) AppleWebKit/534.24 (KHTML, like Gecko) Chrome/11.0.696.3 Safari/534.24"
"Mozilla/5.0 (X11; Linux i686) AppleWebKit/534.24 (KHTML, like Gecko) Chrome/11.0.696.14 Safari/534.24"
"Mozilla/5.0 (Macintosh; Intel Mac OS X 10_6_6) AppleWebKit/534.24 (KHTML, like Gecko) Chrome/11.0.696.12 Safari/534.24"
"Mozilla/5.0 (X11; Linux x86_64) AppleWebKit/534.24 (KHTML, like Gecko) Ubuntu/10.04 Chromium/11.0.696.0 Chrome/11.0.696.0 Safari/534.24"
"Mozilla/5.0 (Macintosh; Intel Mac OS X 10_7_0) AppleWebKit/534.24 (KHTML, like Gecko) Chrome/11.0.696.0 Safari/534.24"
"Mozilla/5.0 (X11; Linux i686) AppleWebKit/534.23 (KHTML, like Gecko) Chrome/11.0.686.3 Safari/534.23"
"Mozilla/5.0 (Macintosh; U; Intel Mac OS X 10_7_0; en-US) AppleWebKit/534.21 (KHTML, like Gecko) Chrome/11.0.678.0 Safari/534.21"
"Mozilla/5.0 (Macintosh; U; Intel Mac OS X 10_6_6; en-US) AppleWebKit/534.20 (KHTML, like Gecko) Chrome/11.0.672.2 Safari/534.20"
"Mozilla/5.0 (Macintosh; U; Intel Mac OS X 10_6_6; en-US) AppleWebKit/534.18 (KHTML, like Gecko) Chrome/11.0.660.0 Safari/534.18"
"Mozilla/5.0 (Macintosh; U; Intel Mac OS X 10_6_4; en-US) AppleWebKit/534.17 (KHTML, like Gecko) Chrome/11.0.655.0 Safari/534.17"
"Mozilla/5.0 (X11; U; Linux x86_64; en-US) AppleWebKit/534.16 (KHTML, like Gecko) Chrome/10.0.648.82 Safari/534.16"
"Mozilla/5.0 (X11; U; Linux armv7l; en-US) AppleWebKit/534.16 (KHTML, like Gecko) Chrome/10.0.648.204 Safari/534.16"
"Mozilla/5.0 (X11; U; FreeBSD x86_64; en-US) AppleWebKit/534.16 (KHTML, like Gecko) Chrome/10.0.648.204 Safari/534.16"
"Mozilla/5.0 (X11; U; FreeBSD i386; en-US) AppleWebKit/534.16 (KHTML, like Gecko) Chrome/10.0.648.204 Safari/534.16"
"Mozilla/5.0 (Macintosh; U; Intel Mac OS X 10_6_5; en-US) AppleWebKit/534.16 (KHTML, like Gecko) Chrome/10.0.648.204"
"Mozilla/5.0 (X11; U; Linux i686; en-US) AppleWebKit/534.16 (KHTML, like Gecko) Chrome/10.0.648.134 Safari/534.16"
"Mozilla/5.0 (Macintosh; U; Intel Mac OS X 10_6_6; en-US) AppleWebKit/534.16 (KHTML, like Gecko) Chrome/10.0.648.134 Safari/534.16"
"Mozilla/5.0 (X11; U; Linux x86_64; en-US) AppleWebKit/534.16 (KHTML, like Gecko) Ubuntu/10.10 Chromium/10.0.648.133 Chrome/10.0.648.133 Safari/534.16"
"Mozilla/5.0 (X11; U; Linux x86_64; en-US) AppleWebKit/534.16 (KHTML, like Gecko) Chrome/10.0.648.133 Safari/534.16"
"Mozilla/5.0 (X11; U; Linux i686; en-US) AppleWebKit/534.16 (KHTML, like Gecko) Ubuntu/10.10 Chromium/10.0.648.133 Chrome/10.0.648.133 Safari/534.16"
"Mozilla/5.0 (X11; U; Linux i686; en-US) AppleWebKit/534.16 (KHTML, like Gecko) Chrome/10.0.648.133 Safari/534.16"
"Mozilla/5.0 (Macintosh; U; Intel Mac OS X 10_6_3; en-US) AppleWebKit/534.16 (KHTML, like Gecko) Chrome/10.0.648.133 Safari/534.16"
"Mozilla/5.0 (Macintosh; U; Intel Mac OS X 10_6_2; en-US) AppleWebKit/534.16 (KHTML, like Gecko) Chrome/10.0.648.133 Safari/534.16"
"Mozilla/5.0 (X11; U; Linux x86_64; en-US) AppleWebKit/534.16 (KHTML, like Gecko) Ubuntu/10.10 Chromium/10.0.648.127 Chrome/10.0.648.127 Safari/534.16"
"Mozilla/5.0 (X11; U; Linux x86_64; en-US) AppleWebKit/534.16 (KHTML, like Gecko) Chrome/10.0.648.127 Safari/534.16"
"Mozilla/5.0 (Macintosh; U; Intel Mac OS X 10_6_4; en-US) AppleWebKit/534.16 (KHTML, like Gecko) Chrome/10.0.648.127 Safari/534.16"
"Mozilla/5.0 (Macintosh; U; Intel Mac OS X 10_5_8; en-US) AppleWebKit/534.16 (KHTML, like Gecko) Chrome/10.0.648.127 Safari/534.16"
"Mozilla/5.0 (X11; U; Linux x86_64; en-US) AppleWebKit/534.16 (KHTML, like Gecko) Chrome/10.0.648.11 Safari/534.16"
"Mozilla/5.0 (X11; U; Linux x86_64; en-US) AppleWebKit/534.16 (KHTML, like Gecko) Ubuntu/10.10 Chromium/10.0.648.0 Chrome/10.0.648.0 Safari/534.16"
"Mozilla/5.0 (X11; U; Linux i686; en-US) AppleWebKit/534.16 (KHTML, like Gecko) Ubuntu/10.10 Chromium/10.0.648.0 Chrome/10.0.648.0 Safari/534.16"
"Mozilla/5.0 (Macintosh; U; Intel Mac OS X 10_6_4; en-US) AppleWebKit/534.16 (KHTML, like Gecko) Chrome/10.0.648.0 Safari/534.16"
"Mozilla/5.0 (X11; U; Linux x86_64; en-US) AppleWebKit/534.16 (KHTML, like Gecko) Ubuntu/10.10 Chromium/10.0.642.0 Chrome/10.0.642.0 Safari/534.16"
"Mozilla/5.0 (Macintosh; U; Intel Mac OS X 10_6_5; en-US) AppleWebKit/534.16 (KHTML, like Gecko) Chrome/10.0.639.0 Safari/534.16"
"Mozilla/5.0 (X11; U; Linux i686 (x86_64); en-US) AppleWebKit/534.16 (KHTML, like Gecko) Chrome/10.0.634.0 Safari/534.16"
"Mozilla/5.0 (X11; U; Linux x86_64; en-US) AppleWebKit/534.16 SUSE/10.0.626.0 (KHTML, like Gecko) Chrome/10.0.626.0 Safari/534.16"
"Mozilla/5.0 (X11; U; Linux x86_64; en-US) AppleWebKit/534.15 (KHTML, like Gecko) Chrome/10.0.613.0 Safari/534.15"
"Mozilla/5.0 (X11; U; Linux i686; en-US) AppleWebKit/534.15 (KHTML, like Gecko) Ubuntu/10.10 Chromium/10.0.613.0 Chrome/10.0.613.0 Safari/534.15"
"Mozilla/5.0 (X11; U; Linux i686; en-US) AppleWebKit/534.15 (KHTML, like Gecko) Ubuntu/10.04 Chromium/10.0.612.3 Chrome/10.0.612.3 Safari/534.15"
"Mozilla/5.0 (X11; U; Linux i686; en-US) AppleWebKit/534.15 (KHTML, like Gecko) Chrome/10.0.612.1 Safari/534.15"
"Mozilla/5.0 (X11; U; Linux i686; en-US) AppleWebKit/534.15 (KHTML, like Gecko) Ubuntu/10.10 Chromium/10.0.611.0 Chrome/10.0.611.0 Safari/534.15"
"Mozilla/5.0 (X11; U; Linux x86_64; en-US) AppleWebKit/540.0 (KHTML,like Gecko) Chrome/9.1.0.0 Safari/540.0"
"Mozilla/5.0 (X11; U; Linux x86_64; en-US) AppleWebKit/540.0 (KHTML, like Gecko) Ubuntu/10.10 Chrome/9.1.0.0 Safari/540.0"
"Mozilla/5.0 (X11; U; Linux x86_64; en-US) AppleWebKit/534.14 (KHTML, like Gecko) Ubuntu/10.10 Chromium/9.0.600.0 Chrome/9.0.600.0 Safari/534.14"
"Mozilla/5.0 (X11; U; Linux i686; en-US) AppleWebKit/534.13 (KHTML, like Gecko) Chrome/9.0.597.84 Safari/534.13"
"Mozilla/5.0 (X11; U; Linux i686; en-US) AppleWebKit/534.13 (KHTML, like Gecko) Chrome/9.0.597.44 Safari/534.13"
"Mozilla/5.0 (Macintosh; U; Intel Mac OS X 10_6_5; en-US) AppleWebKit/534.13 (KHTML, like Gecko) Chrome/9.0.597.15 Safari/534.13"
"Mozilla/5.0 (X11; U; Linux x86_64; en-US) AppleWebKit/534.13 (KHTML, like Gecko) Chrome/9.0.597.0 Safari/534.13"
"Mozilla/5.0 (Macintosh; U; Intel Mac OS X 10_6_5; en-US) AppleWebKit/534.13 (KHTML, like Gecko) Chrome/9.0.597.0 Safari/534.13"
"Mozilla/5.0 (Macintosh; U; Intel Mac OS X 10_6_4; en-US) AppleWebKit/534.13 (KHTML, like Gecko) Chrome/9.0.597.0 Safari/534.13"
"Mozilla/5.0 (X11; U; Linux x86_64; en-US) AppleWebKit/534.13 (KHTML, like Gecko) Ubuntu/10.04 Chromium/9.0.595.0 Chrome/9.0.595.0 Safari/534.13"
"Mozilla/5.0 (X11; U; Linux i686; en-US) AppleWebKit/534.13 (KHTML, like Gecko) Ubuntu/9.10 Chromium/9.0.592.0 Chrome/9.0.592.0 Safari/534.13"
"Mozilla/5.0 (X11; U; Linux i686; en-US) AppleWebKit/534.12 (KHTML, like Gecko) Chrome/9.0.579.0 Safari/534.12"
"Mozilla/5.0 (X11; U; Linux i686 (x86_64); en-US) AppleWebKit/534.12 (KHTML, like Gecko) Chrome/9.0.576.0 Safari/534.12"
"Mozilla/5.0 (X11; U; Linux x86_64; en-US) AppleWebKit/540.0 (KHTML, like Gecko) Ubuntu/10.10 Chrome/8.1.0.0 Safari/540.0"
"Mozilla/5.0 (X11; U; CrOS i686 0.9.130; en-US) AppleWebKit/534.10 (KHTML, like Gecko) Chrome/8.0.552.344 Safari/534.10"
"Mozilla/5.0 (X11; U; CrOS i686 0.9.128; en-US) AppleWebKit/534.10 (KHTML, like Gecko) Chrome/8.0.552.343 Safari/534.10"
"Mozilla/5.0 (X11; U; CrOS i686 0.9.128; en-US) AppleWebKit/534.10 (KHTML, like Gecko) Chrome/8.0.552.341 Safari/534.10"
"Mozilla/5.0 (X11; U; CrOS i686 0.9.128; en-US) AppleWebKit/534.10 (KHTML, like Gecko) Chrome/8.0.552.339 Safari/534.10"
"Mozilla/5.0 (X11; U; CrOS i686 0.9.128; en-US) AppleWebKit/534.10 (KHTML, like Gecko) Chrome/8.0.552.339"
"Mozilla/5.0 (X11; U; Linux x86_64; en-US) AppleWebKit/534.10 (KHTML, like Gecko) Ubuntu/10.10 Chromium/8.0.552.237 Chrome/8.0.552.237 Safari/534.10"
"Mozilla/5.0 (Macintosh; U; Intel Mac OS X 10_5_8; en-US) AppleWebKit/534.10 (KHTML, like Gecko) Chrome/8.0.552.224 Safari/534.10"
"Mozilla/5.0 (X11; U; Linux x86_64; en-US) AppleWebKit/534.10 (KHTML, like Gecko) Chrome/8.0.552.215 Safari/534.10"
"Mozilla/5.0 (Macintosh; U; Intel Mac OS X 10_6_4; en-US) AppleWebKit/534.10 (KHTML, like Gecko) Chrome/8.0.552.210 Safari/534.10"
"Mozilla/5.0 (X11; U; Linux x86_64; en-US) AppleWebKit/534.10 (KHTML, like Gecko) Chrome/8.0.552.200 Safari/534.10"
"Mozilla/5.0 (X11; U; Linux i686; en-US) AppleWebKit/534.10 (KHTML, like Gecko) Chrome/8.0.551.0 Safari/534.10"
"Mozilla/5.0 (X11; U; Linux x86_64; en-US) AppleWebKit/534.10 (KHTML, like Gecko) Chrome/7.0.544.0 Safari/534.10"
"Mozilla/5.0 (X11; U; Linux i686; en-US) AppleWebKit/534.7 (KHTML, like Gecko) Chrome/7.0.517.24 Safari/534.7"
"Mozilla/5.0 (X11; U; Linux x86_64; fr-FR) AppleWebKit/534.7 (KHTML, like Gecko) Chrome/7.0.514.0 Safari/534.7"
"Mozilla/5.0 (X11; U; Linux x86_64; en-US) AppleWebKit/534.7 (KHTML, like Gecko) Chrome/7.0.514.0 Safari/534.7"
"Mozilla/5.0 (Macintosh; U; PPC Mac OS X 10_5_8; zh-cn) AppleWebKit/533.20.25 (KHTML, like Gecko) Version/5.0.4 Safari/533.20.27"
"Mozilla/5.0 (Macintosh; U; PPC Mac OS X 10_5_8; ja-jp) AppleWebKit/533.20.25 (KHTML, like Gecko) Version/5.0.4 Safari/533.20.27"
"Mozilla/5.0 (Macintosh; U; Intel Mac OS X 10_6_7; ja-jp) AppleWebKit/533.20.25 (KHTML, like Gecko) Version/5.0.4 Safari/533.20.27"
"Mozilla/5.0 (Macintosh; U; Intel Mac OS X 10_6_6; zh-cn) AppleWebKit/533.20.25 (KHTML, like Gecko) Version/5.0.4 Safari/533.20.27"
"Mozilla/5.0 (Macintosh; U; Intel Mac OS X 10_6_6; sv-se) AppleWebKit/533.20.25 (KHTML, like Gecko) Version/5.0.4 Safari/533.20.27"
"Mozilla/5.0 (Macintosh; U; Intel Mac OS X 10_6_6; ko-kr) AppleWebKit/533.20.25 (KHTML, like Gecko) Version/5.0.4 Safari/533.20.27"
"Mozilla/5.0 (Macintosh; U; Intel Mac OS X 10_6_6; ja-jp) AppleWebKit/533.20.25 (KHTML, like Gecko) Version/5.0.4 Safari/533.20.27"
"Mozilla/5.0 (Macintosh; U; Intel Mac OS X 10_6_6; it-it) AppleWebKit/533.20.25 (KHTML, like Gecko) Version/5.0.4 Safari/533.20.27"
"Mozilla/5.0 (Macintosh; U; Intel Mac OS X 10_6_6; fr-fr) AppleWebKit/533.20.25 (KHTML, like Gecko) Version/5.0.4 Safari/533.20.27"
"Mozilla/5.0 (Macintosh; U; Intel Mac OS X 10_6_6; es-es) AppleWebKit/533.20.25 (KHTML, like Gecko) Version/5.0.4 Safari/533.20.27"
"Mozilla/5.0 (Macintosh; U; Intel Mac OS X 10_6_6; en-us) AppleWebKit/533.20.25 (KHTML, like Gecko) Version/5.0.4 Safari/533.20.27"
"Mozilla/5.0 (Macintosh; U; Intel Mac OS X 10_6_6; en-gb) AppleWebKit/533.20.25 (KHTML, like Gecko) Version/5.0.4 Safari/533.20.27"
"Mozilla/5.0 (Macintosh; U; Intel Mac OS X 10_6_6; de-de) AppleWebKit/533.20.25 (KHTML, like Gecko) Version/5.0.4 Safari/533.20.27"
"Mozilla/5.0 (Macintosh; U; Intel Mac OS X 10_6_7; en-us) AppleWebKit/534.16+ (KHTML, like Gecko) Version/5.0.3 Safari/533.19.4"
"Mozilla/5.0 (Macintosh; U; Intel Mac OS X 10_6_6; fr-ch) AppleWebKit/533.19.4 (KHTML, like Gecko) Version/5.0.3 Safari/533.19.4"
"Mozilla/5.0 (Macintosh; U; Intel Mac OS X 10_6_5; de-de) AppleWebKit/534.15+ (KHTML, like Gecko) Version/5.0.3 Safari/533.19.4"
"Mozilla/5.0 (Macintosh; U; Intel Mac OS X 10_6_5; ar) AppleWebKit/533.19.4 (KHTML, like Gecko) Version/5.0.3 Safari/533.19.4"
"Mozilla/5.0 (Macintosh; U; Intel Mac OS X 10_5_8; zh-cn) AppleWebKit/533.18.1 (KHTML, like Gecko) Version/5.0.2 Safari/533.18.5"
"Mozilla/5.0 (iPod; U; CPU iPhone OS 4_3_1 like Mac OS X; zh-cn) AppleWebKit/533.17.9 (KHTML, like Gecko) Version/5.0.2 Mobile/8G4 Safari/6533.18.5"
"Mozilla/5.0 (iPod; U; CPU iPhone OS 4_2_1 like Mac OS X; he-il) AppleWebKit/533.17.9 (KHTML, like Gecko) Version/5.0.2 Mobile/8C148 Safari/6533.18.5"
"Mozilla/5.0 (iPhone; U; fr; CPU iPhone OS 4_2_1 like Mac OS X; fr) AppleWebKit/533.17.9 (KHTML, like Gecko) Version/5.0.2 Mobile/8C148a Safari/6533.18.5"
"Mozilla/5.0 (iPhone; U; CPU iPhone OS 4_3_1 like Mac OS X; zh-tw) AppleWebKit/533.17.9 (KHTML, like Gecko) Version/5.0.2 Mobile/8G4 Safari/6533.18.5"
"Mozilla/5.0 (iPhone; U; CPU iPhone OS 4_3 like Mac OS X; pl-pl) AppleWebKit/533.17.9 (KHTML, like Gecko) Version/5.0.2 Mobile/8F190 Safari/6533.18.5"
"Mozilla/5.0 (iPhone; U; CPU iPhone OS 4_3 like Mac OS X; fr-fr) AppleWebKit/533.17.9 (KHTML, like Gecko) Version/5.0.2 Mobile/8F190 Safari/6533.18.5"
"Mozilla/5.0 (iPhone; U; CPU iPhone OS 4_3 like Mac OS X; en-gb) AppleWebKit/533.17.9 (KHTML, like Gecko) Version/5.0.2 Mobile/8F190 Safari/6533.18.5"
"Mozilla/5.0 (iPhone; U; CPU iPhone OS 4_2_1 like Mac OS X; nb-no) AppleWebKit/533.17.9 (KHTML, like Gecko) Version/5.0.2 Mobile/8C148a Safari/6533.18.5"
"Mozilla/5.0 (iPhone; U; CPU iPhone OS 4_2_1 like Mac OS X; it-it) AppleWebKit/533.17.9 (KHTML, like Gecko) Version/5.0.2 Mobile/8C148a Safari/6533.18.5"
"Mozilla/5.0 (iPhone; U; CPU iPhone OS 4_2_1 like Mac OS X; fr) AppleWebKit/533.17.9 (KHTML, like Gecko) Version/5.0.2 Mobile/8C148a Safari/6533.18.5"
"Mozilla/5.0 (iPhone; U; CPU iPhone OS 4_2_1 like Mac OS X; fi-fi) AppleWebKit/533.17.9 (KHTML, like Gecko) Version/5.0.2 Mobile/8C148a Safari/6533.18.5"
"Mozilla/5.0 (iPhone; U; CPU iPhone OS 4_2_1 like Mac OS X; fi-fi) AppleWebKit/533.17.9 (KHTML, like Gecko) Version/5.0.2 Mobile/8C148 Safari/6533.18.5"
"Mozilla/5.0 (Macintosh; U; Intel Mac OS X 10_6_4; th-th) AppleWebKit/533.17.8 (KHTML, like Gecko) Version/5.0.1 Safari/533.17.8"
"Mozilla/5.0 (X11; U; Linux x86_64; en-us) AppleWebKit/531.2+ (KHTML, like Gecko) Version/5.0 Safari/531.2+"
"Mozilla/5.0 (X11; U; Linux x86_64; en-ca) AppleWebKit/531.2+ (KHTML, like Gecko) Version/5.0 Safari/531.2+"
"Mozilla/5.0 (Macintosh; U; PPC Mac OS X 10_5_8; ja-jp) AppleWebKit/533.16 (KHTML, like Gecko) Version/5.0 Safari/533.16"
"Mozilla/5.0 (Macintosh; U; PPC Mac OS X 10_4_11; fr) AppleWebKit/533.16 (KHTML, like Gecko) Version/5.0 Safari/533.16"
"Mozilla/5.0 (Macintosh; U; Intel Mac OS X 10_6_3; zh-cn) AppleWebKit/533.16 (KHTML, like Gecko) Version/5.0 Safari/533.16"
"Mozilla/5.0 (Macintosh; U; Intel Mac OS X 10_6_3; ru-ru) AppleWebKit/533.16 (KHTML, like Gecko) Version/5.0 Safari/533.16"
"Mozilla/5.0 (Macintosh; U; Intel Mac OS X 10_6_3; ko-kr) AppleWebKit/533.16 (KHTML, like Gecko) Version/5.0 Safari/533.16"
"Mozilla/5.0 (Macintosh; U; Intel Mac OS X 10_6_3; it-it) AppleWebKit/533.16 (KHTML, like Gecko) Version/5.0 Safari/533.16"
"Mozilla/5.0 (Macintosh; U; Intel Mac OS X 10_6_3; en-us) AppleWebKit/534.1+ (KHTML, like Gecko) Version/5.0 Safari/533.16"
"Mozilla/5.0 (Macintosh; U; Intel Mac OS X 10_6_3; en-au) AppleWebKit/533.16 (KHTML, like Gecko) Version/5.0 Safari/533.16"
"Mozilla/5.0 (Macintosh; U; Intel Mac OS X 10_6_3; el-gr) AppleWebKit/533.16 (KHTML, like Gecko) Version/5.0 Safari/533.16"
"Mozilla/5.0 (Macintosh; U; Intel Mac OS X 10_6_3; ca-es) AppleWebKit/533.16 (KHTML, like Gecko) Version/5.0 Safari/533.16"
"Mozilla/5.0 (Macintosh; U; Intel Mac OS X 10_5_8; zh-tw) AppleWebKit/533.16 (KHTML, like Gecko) Version/5.0 Safari/533.16"
"Mozilla/5.0 (Macintosh; U; Intel Mac OS X 10_5_8; ja-jp) AppleWebKit/533.16 (KHTML, like Gecko) Version/5.0 Safari/533.16"
"Mozilla/5.0 (Macintosh; U; Intel Mac OS X 10_5_8; it-it) AppleWebKit/533.16 (KHTML, like Gecko) Version/5.0 Safari/533.16"
"Mozilla/5.0 (Macintosh; U; Intel Mac OS X 10_5_8; fr-fr) AppleWebKit/533.16 (KHTML, like Gecko) Version/5.0 Safari/533.16"
"Mozilla/5.0 (Macintosh; U; PPC Mac OS X 10_4_11; nl-nl) AppleWebKit/533.16 (KHTML, like Gecko) Version/4.1 Safari/533.16"
"Mozilla/5.0 (Macintosh; U; PPC Mac OS X 10_4_11; ja-jp) AppleWebKit/533.16 (KHTML, like Gecko) Version/4.1 Safari/533.16"
"Mozilla/5.0 (Macintosh; U; PPC Mac OS X 10_4_11; de-de) AppleWebKit/533.16 (KHTML, like Gecko) Version/4.1 Safari/533.16"
"Mozilla/5.0 (Macintosh; U; Intel Mac OS X 10_7; en-us) AppleWebKit/533.4 (KHTML, like Gecko) Version/4.1 Safari/533.4"
"Mozilla/5.0 (Macintosh; U; PPC Mac OS X 10_4_11; tr) AppleWebKit/528.4+ (KHTML, like Gecko) Version/4.0dp1 Safari/526.11.2"
"Mozilla/5.0 (Macintosh; U; PPC Mac OS X 10_4_11; en) AppleWebKit/528.4+ (KHTML, like Gecko) Version/4.0dp1 Safari/526.11.2"
"Mozilla/5.0 (Macintosh; U; PPC Mac OS X 10_4_11; de) AppleWebKit/528.4+ (KHTML, like Gecko) Version/4.0dp1 Safari/526.11.2"
"Mozilla/5.0 (Macintosh; U; Intel Mac OS X 10_5_6; en-gb) AppleWebKit/528.10+ (KHTML, like Gecko) Version/4.0dp1 Safari/526.11.2"
"Mozilla/5.0 (Macintosh; U; Intel Mac OS X 10_5_4; en-us) AppleWebKit/528.4+ (KHTML, like Gecko) Version/4.0dp1 Safari/526.11.2"
"Mozilla/5.0 (Macintosh; U; Intel Mac OS X 10_5_4; en-gb) AppleWebKit/528.4+ (KHTML, like Gecko) Version/4.0dp1 Safari/526.11.2"
"Mozilla/5.0 (Macintosh; U; PPC Mac OS X 10_5_8; en-us) AppleWebKit/531.22.7 (KHTML, like Gecko) Version/4.0.5 Safari/531.22.7"
"Mozilla/5.0 (Macintosh; U; PPC Mac OS X 10_4_11; da-dk) AppleWebKit/531.22.7 (KHTML, like Gecko) Version/4.0.5 Safari/531.22.7"
"Mozilla/5.0 (Macintosh; U; Intel Mac OS X 10_6_3; ja-jp) AppleWebKit/531.22.7 (KHTML, like Gecko) Version/4.0.5 Safari/531.22.7"
"Mozilla/5.0 (Macintosh; U; Intel Mac OS X 10_6_3; en-us) AppleWebKit/533.4+ (KHTML, like Gecko) Version/4.0.5 Safari/531.22.7"
"Mozilla/5.0 (Macintosh; U; Intel Mac OS X 10_6_3; en-us) AppleWebKit/531.22.7 (KHTML, like Gecko) Version/4.0.5 Safari/531.22.7"
"Mozilla/5.0 (Macintosh; U; Intel Mac OS X 10_6_3; de-de) AppleWebKit/531.22.7 (KHTML, like Gecko) Version/4.0.5 Safari/531.22.7"
"Mozilla/5.0 (Macintosh; U; Intel Mac OS X 10_6_2; ja-jp) AppleWebKit/531.22.7 (KHTML, like Gecko) Version/4.0.5 Safari/531.22.7"
"Mozilla/5.0 (Macintosh; U; Intel Mac OS X 10_5_8; nl-nl) AppleWebKit/531.22.7 (KHTML, like Gecko) Version/4.0.5 Safari/531.22.7"
"Mozilla/5.0 (iPhone; U; CPU iPhone OS 4_1 like Mac OS X; en-us) AppleWebKit/532.9 (KHTML, like Gecko) Version/4.0.5 Mobile/8B5097d Safari/6531.22.7"
"Mozilla/5.0 (iPhone; U; CPU iPhone OS 4_1 like Mac OS X; en-us) AppleWebKit/532.9 (KHTML, like Gecko) Version/4.0.5 Mobile/8B117 Safari/6531.22.7"
"Mozilla/5.0(iPad; U; CPU iPhone OS 3_2 like Mac OS X; en-us) AppleWebKit/531.21.10 (KHTML, like Gecko) Version/4.0.4 Mobile/7B314 Safari/531.21.10gin_lib.cc"
"Mozilla/5.0(iPad; U; CPU iPhone OS 3_2 like Mac OS X; en-us) AppleWebKit/531.21.10 (KHTML, like Gecko) Version/4.0.4 Mobile/7B314 Safari/531.21.10"
"Mozilla/5.0(iPad; U; CPU iPhone OS 3_2 like Mac OS X; en-us) AppleWebKit/531.21.10 (KHTML, like Gecko) Version/4.0.4 Mobile/7B314 Safari/123"
"Mozilla/5.0 (Macintosh; U; PPC Mac OS X 10_4_11; hu-hu) AppleWebKit/531.21.8 (KHTML, like Gecko) Version/4.0.4 Safari/531.21.10"
"Mozilla/5.0 (Macintosh; U; Intel Mac OS X 10_6_3; en-us) AppleWebKit/531.21.11 (KHTML, like Gecko) Version/4.0.4 Safari/531.21.10"
"Mozilla/5.0 (Macintosh; U; Intel Mac OS X 10_6_2; ru-ru) AppleWebKit/533.2+ (KHTML, like Gecko) Version/4.0.4 Safari/531.21.10"
"Mozilla/5.0 (Macintosh; U; Intel Mac OS X 10_6_2; de-at) AppleWebKit/531.21.8 (KHTML, like Gecko) Version/4.0.4 Safari/531.21.10"
"Mozilla/5.0 (iPhone; U; CPU OS 3_2 like Mac OS X; en-us) AppleWebKit/531.21.10 (KHTML, like Gecko) Version/4.0.4 Mobile/7B334b Safari/531.21.10"
"Mozilla/5.0 (iPhone Simulator; U; CPU iPhone OS 3_2 like Mac OS X; en-us) AppleWebKit/531.21.10 (KHTML, like Gecko) Version/4.0.4 Mobile/7D11 Safari/531.21.10"
"Mozilla/5.0 (iPad; U; CPU OS 3_2_2 like Mac OS X; en-us) AppleWebKit/531.21.10 (KHTML, like Gecko) Version/4.0.4 Mobile/7B500 Safari/53"
"Mozilla/5.0 (iPad; U; CPU OS 3_2 like Mac OS X; es-es) AppleWebKit/531.21.10 (KHTML, like Gecko) Version/4.0.4 Mobile/7B367 Safari/531.21.10"
"Mozilla/5.0 (iPad; U; CPU OS 3_2 like Mac OS X; es-es) AppleWebKit/531.21.10 (KHTML, like Gecko) Version/4.0.4 Mobile/7B360 Safari/531.21.10"
"Mozilla/5.0 (iPad; U; CPU OS 3_2 like Mac OS X; en-us) AppleWebKit/531.21.10 (KHTML, like Gecko) Version/4.0.4 Mobile/7B334b Safari/531.21.1021.10gin_lib.cc"
"Mozilla/5.0 (iPad; U; CPU iPhone OS 3_2 like Mac OS X; en-us) AppleWebKit/531.21.10 (KHTML, like Gecko) Version/4.0.4 Mobile/7B314"
"Mozilla/5.0 (Macintosh; U; PPC Mac OS X 10_5_8; en-us) AppleWebKit/532.0+ (KHTML, like Gecko) Version/4.0.3 Safari/531.9.2009"
"Mozilla/5.0 (Macintosh; U; PPC Mac OS X 10_5_8; en-us) AppleWebKit/532.0+ (KHTML, like Gecko) Version/4.0.3 Safari/531.9"
"Mozilla/5.0 (Macintosh; U; Intel Mac OS X 10_6_1; nl-nl) AppleWebKit/532.3+ (KHTML, like Gecko) Version/4.0.3 Safari/531.9"
"Mozilla/5.0 (Macintosh; U; Intel Mac OS X 10_5_8; fi-fi) AppleWebKit/531.9 (KHTML, like Gecko) Version/4.0.3 Safari/531.9"
"Mozilla/5.0 (Macintosh; U; Intel Mac OS X 10_5_8; en-us) AppleWebKit/531.21.8 (KHTML, like Gecko) Version/4.0.3 Safari/531.21.10"
"Mozilla/5.0 (Macintosh; U; PPC Mac OS X 10_5_7; en-us) AppleWebKit/530.19.2 (KHTML, like Gecko) Version/4.0.2 Safari/530.19"
"Mozilla/5.0 (Macintosh; U; Intel Mac OS X 10_5_7; en-us) AppleWebKit/530.19.2 (KHTML, like Gecko) Version/4.0.2 Safari/530.19"
"Mozilla/5.0 (Macintosh; U; Intel Mac OS X 10_5_7; en-us) AppleWebKit/531.2+ (KHTML, like Gecko) Version/4.0.1 Safari/530.18"
"Mozilla/5.0 (Macintosh; U; Intel Mac OS X 10_5_7; en-us) AppleWebKit/530.19.2 (KHTML, like Gecko) Version/4.0.1 Safari/530.18"
"Opera/9.80 (X11; Linux x86_64; U; Ubuntu/10.10 (maverick); pl) Presto/2.7.62 Version/11.01"
"Opera/9.80 (X11; Linux i686; U; ja) Presto/2.7.62 Version/11.01"
"Opera/9.80 (X11; Linux i686; U; fr) Presto/2.7.62 Version/11.01"
"Opera/9.80 (X11; Linux x86_64; U; pl) Presto/2.7.62 Version/11.00"
"Opera/9.80 (X11; Linux i686; U; it) Presto/2.7.62 Version/11.00"
"Mozilla/4.0 (compatible; MSIE 8.0; X11; Linux x86_64; pl) Opera 11.00"
"Mozilla/5.0 (X11; Linux x86_64; U; de; rv:1.9.1.6) Gecko/20091201 Firefox/3.5.6 Opera 10.62"
"Mozilla/4.0 (compatible; MSIE 8.0; X11; Linux x86_64; de) Opera 10.62"
"Opera/9.80 (X11; Linux i686; U; pl) Presto/2.6.30 Version/10.61"
"Opera/9.80 (X11; Linux i686; U; es-ES) Presto/2.6.30 Version/10.61"
"Opera/9.80 (Windows 98; U; de) Presto/2.6.30 Version/10.61"
"Opera/9.80 (Macintosh; Intel Mac OS X; U; nl) Presto/2.6.30 Version/10.61"
"Opera/9.80 (X11; Linux i686; U; en) Presto/2.5.27 Version/10.60"
"Opera/9.80 (X11; Linux i686; U; it) Presto/2.5.24 Version/10.54"
"Opera/9.80 (X11; Linux i686; U; en-GB) Presto/2.5.24 Version/10.53"
"Opera/9.80 (Linux i686; U; en) Presto/2.5.22 Version/10.51"
"Mozilla/5.0 (Linux i686; U; en; rv:1.9.1.6) Gecko/20091201 Firefox/3.5.6 Opera 10.51"
"Mozilla/4.0 (compatible; MSIE 8.0; Linux i686; en) Opera 10.51"
"Opera/9.80 (S60; SymbOS; Opera Tablet/9174; U; en) Presto/2.7.81 Version/10.5"
"Opera/9.80 (X11; U; Linux i686; en-US; rv:1.9.2.3) Presto/2.2.15 Version/10.10"
"Opera/9.80 (X11; Linux x86_64; U; it) Presto/2.2.15 Version/10.10"
"Mozilla/4.0 (compatible; MSIE 6.0; X11; Linux i686; de) Opera 10.10"
"Opera/9.80 (X11; Linux x86_64; U; en-GB) Presto/2.2.15 Version/10.01"
"Opera/9.80 (X11; Linux x86_64; U; en) Presto/2.2.15 Version/10.00"
"Opera/9.80 (X11; Linux x86_64; U; de) Presto/2.2.15 Version/10.00"
"Opera/9.80 (X11; Linux i686; U; ru) Presto/2.2.15 Version/10.00"
"Opera/9.80 (X11; Linux i686; U; pt-BR) Presto/2.2.15 Version/10.00"
"Opera/9.80 (X11; Linux i686; U; pl) Presto/2.2.15 Version/10.00"
"Opera/9.80 (X11; Linux i686; U; nb) Presto/2.2.15 Version/10.00"
"Opera/9.80 (X11; Linux i686; U; en-GB) Presto/2.2.15 Version/10.00"
"Opera/9.80 (X11; Linux i686; U; en) Presto/2.2.15 Version/10.00"
"Opera/9.80 (X11; Linux i686; U; Debian; pl) Presto/2.2.15 Version/10.00"
"Opera/9.80 (X11; Linux i686; U; de) Presto/2.2.15 Version/10.00"
